<svg id="图层_1" data-name="图层 1" xmlns="http://www.w3.org/2000/svg" viewBox="0 0 60 60">
  <defs>
    <style>
      .cls-1 {
        fill: none;
        stroke: #fff;
        stroke-miterlimit: 10;
        stroke-width: 1.55px;
      }
    </style>
  </defs>
  <title>cssz</title>
  <g>
    <g>
      <circle class="cls-1" cx="30.73" cy="9.31" r="3.81"/>
      <line class="cls-1" x1="30.73" y1="13.13" x2="30.73" y2="26.69"/>
      <circle class="cls-1" cx="30.73" cy="30.5" r="3.81"/>
      <circle class="cls-1" cx="30.52" cy="51.69" r="3.81"/>
      <line class="cls-1" x1="30.73" y1="34.31" x2="30.73" y2="47.87"/>
    </g>
    <g>
      <circle class="cls-1" cx="49.03" cy="20" r="3.81" transform="translate(-3.43 27.19) rotate(-30)"/>
      <line class="cls-1" x1="45.72" y1="21.91" x2="33.98" y2="28.68"/>
      <circle class="cls-1" cx="12.22" cy="41" r="3.81" transform="translate(-18.86 11.61) rotate(-30)"/>
      <line class="cls-1" x1="27.38" y1="32.5" x2="15.63" y2="39.28"/>
    </g>
    <g>
      <circle class="cls-1" cx="12.33" cy="19.82" r="3.81" transform="translate(-11 20.59) rotate(-60)"/>
      <line class="cls-1" x1="15.63" y1="21.72" x2="27.38" y2="28.5"/>
      <circle class="cls-1" cx="48.92" cy="41.18" r="3.81" transform="translate(-11.21 62.96) rotate(-60)"/>
      <line class="cls-1" x1="33.98" y1="32.32" x2="45.72" y2="39.09"/>
    </g>
  </g>
</svg>
