<svg id="图层_1" data-name="图层 1" xmlns="http://www.w3.org/2000/svg" viewBox="0 0 52 52">
  <defs>
    <style>
      .cls-1 {
        fill: none;
        stroke: #fff;
        stroke-miterlimit: 10;
        stroke-width: 2px;
      }
    </style>
  </defs>
  <title>xsjfwwd</title>
  <g>
    <path class="cls-1" d="M30.53,48.73c2.66-1,11.79-15.32,12.27-22.79.49-7.63-5.69-14.12-12.58-14.12S16.9,18.16,17.77,26.57c.67,6.46,9.54,21.19,12.17,22.16l.29.1Z" transform="translate(-4.26 -4.33)"/>
    <g>
      <path class="cls-1" d="M30.32,16.17c4,0,4.64,3.45,4.81,4.66a1,1,0,0,0,.28.59c.29.3.65.89-.24,1.48s-1.26,5.47-5.05,5.47c-3.5,0-4.1-4.33-5.26-5.26a1.18,1.18,0,0,1-.1-1.78.56.56,0,0,0,.12-.28c.12-.88.91-5.74,5.25-5.74" transform="translate(-4.26 -4.33)"/>
      <path class="cls-1" d="M33.52,28.38s2.95,2.95,6.11,2.95" transform="translate(-4.26 -4.33)"/>
      <path class="cls-1" d="M27.84,28S24,31.33,20.89,31.33" transform="translate(-4.26 -4.33)"/>
    </g>
    <circle class="cls-1" cx="26" cy="26" r="25"/>
  </g>
</svg>
