<svg id="图层_4" data-name="图层 4" xmlns="http://www.w3.org/2000/svg" viewBox="0 0 50 50">
  <defs>
    <style>
      .cls-1 {
        fill: none;
        stroke: #fff;
        stroke-miterlimit: 10;
        stroke-width: 1.5px;
      }
    </style>
  </defs>
  <title>jkzt</title>
  <g>
    <circle class="cls-1" cx="25" cy="25" r="22.5"/>
    <line class="cls-1" x1="14.7" y1="36.84" x2="34.83" y2="36.84"/>
    <path class="cls-1" d="M25,32.58V25.86a3.24,3.24,0,0,1,3.23-3.23h6.72"/>
    <path class="cls-1" d="M24.53,12.68v6.72a3.24,3.24,0,0,1-3.23,3.23H14.58"/>
  </g>
</svg>
